<?xml version="1.0" encoding="utf-16"?>
<UpgradeLog>
    <Settings>
        <Setting
            Name = "LogFile"
            Value = "Quotes.log"
        />
        <Setting
            Name = "GenerateInterfacesForClasses"
            Value = "FALSE"
        />
        <Setting
            Name = "ProjectName"
            Value = "Quotes"
        />
        <Setting
            Name = "OutputName"
            Value = "Quotes.vbproj"
        />
        <Setting
            Name = "OutputDir"
            Value = "C:\Users\BillDavis\Documents\Quotes app dot NET\Quotes.NET"
        />
        <Setting
            Name = "ProjectPath"
            Value = "C:\Users\BillDavis\Documents\Quotes app dot NET\Quotes.vbp"
        />
        <Setting
            Name = "MigrateProjectTo"
            Value = "WinExe"
        />
    </Settings>
    <File
        OldPath = "C:\Users\BillDavis\Documents\Quotes app dot NET\frmMain.frm"
        NewPath = "C:\Users\BillDavis\Documents\Quotes app dot NET\Quotes.NET\frmMain.vb"
        FileType = "Form"
        Upgraded = "True"
    >
        <Section Name = "(Layout)" >
            <Issue
                Type = "Design"
                Number = "CC4C7EC0-C903-48FC-ACCC-81861D12DA4A"
                ObjectName = "frmQuote"
                ObjectType = "Form"
                PME = "AutoRedraw"
            >Form property frmQuote.AutoRedraw was not upgraded.</Issue>
        </Section>
        <Section Name = "Form_Activate" >
            <Issue
                Type = "Runtime"
                Number = "6BA9B8D2-2A32-4B6E-8D36-44949974A5B4"
                ObjectName = "frmQuote"
                ObjectType = "Form"
                PME = "Activate"
            >Form event frmQuote.Activate has a new behavior.</Issue>
        </Section>
        <Section Name = "Form_Deactivate" >
            <Issue
                Type = "Runtime"
                Number = "6BA9B8D2-2A32-4B6E-8D36-44949974A5B4"
                ObjectName = "frmQuote"
                ObjectType = "Form"
                PME = "Deactivate"
            >Form event frmQuote.Deactivate has a new behavior.</Issue>
        </Section>
        <Section Name = "Form_MouseUp" >
            <Issue
                Type = "Compile"
                Number = "CC4C7EC0-C903-48FC-ACCC-81861D12DA4A"
                ObjectName = "frmQuote"
                ObjectType = "Form"
                PME = "PopupMenu"
            >Form method frmQuote.PopupMenu was not upgraded.</Issue>
        </Section>
        <Section Name = "Form_DragDrop" >
            <Issue
                Type = "Runtime"
                Number = "9B7D5ADD-D8FE-4819-A36C-6DEDAF088CC7"
            >TypeOf has a new behavior.</Issue>
            <Issue
                Type = "Compile"
                Number = "ABD9AF39-7E24-4AFF-AD8D-3675C1AA3054"
                ObjectName = "Form"
                ObjectType = "Form"
                PME = "DragDrop"
            >Form event Form.DragDrop was not upgraded.</Issue>
        </Section>
        <Section Name = "lblAttribution_DragDrop" >
            <Issue
                Type = "Compile"
                Number = "ABD9AF39-7E24-4AFF-AD8D-3675C1AA3054"
                ObjectName = "lblAttribution"
                ObjectType = "Label"
                PME = "DragDrop"
            >Label event lblAttribution.DragDrop was not upgraded.</Issue>
        </Section>
        <Section Name = "lblQuote_DragDrop" >
            <Issue
                Type = "Compile"
                Number = "ABD9AF39-7E24-4AFF-AD8D-3675C1AA3054"
                ObjectName = "lblQuote"
                ObjectType = "Label"
                PME = "DragDrop"
            >Label event lblQuote.DragDrop was not upgraded.</Issue>
        </Section>
        <Section Name = "lblQuote_MouseUp" >
            <Issue
                Type = "Compile"
                Number = "CC4C7EC0-C903-48FC-ACCC-81861D12DA4A"
                ObjectName = "frmQuote"
                ObjectType = "Form"
                PME = "PopupMenu"
            >Form method frmQuote.PopupMenu was not upgraded.</Issue>
        </Section>
        <Section Name = "FindNextQuote" >
            <Issue
                Type = "Runtime"
                Number = "6A50421D-15FE-4896-8A1B-2EC21E9037B2"
            >Couldn't resolve default property of object FindQuote().</Issue>
        </Section>
        <Section Name = "Form_Resize" >
            <Issue
                Type = "Runtime"
                Number = "88B12AE1-6DE0-48A0-86F1-60C0686C026A"
                ObjectType = "Form"
                PME = "Resize"
            >Event frmQuote.Resize may fire when form is initialized.</Issue>
        </Section>
        <Section Name = "mnuHelpAbout_Click" >
            <Issue
                Type = "Runtime"
                Number = "6BA9B8D2-2A32-4B6E-8D36-44949974A5B4"
                ObjectName = "App"
                ObjectType = "App"
                PME = "EXEName"
            >App property App.EXEName has a new behavior.</Issue>
        </Section>
    </File>
    <File
        OldPath = "C:\Users\BillDavis\Documents\Quotes app dot NET\modQuotes.bas"
        NewPath = "C:\Users\BillDavis\Documents\Quotes app dot NET\Quotes.NET\modQuotes.vb"
        FileType = "Module"
        Upgraded = "True"
    >
        <Section Name = "GetLocalTime" >
            <Issue
                Type = "Runtime"
                Number = "C429C3A5-5D47-4CD9-8F51-74A1616405DC"
            >Structure SYSTEMTIME may require marshalling attributes to be passed as an argument in this Declare statement.</Issue>
        </Section>
        <Section Name = "GetSystemTime" >
            <Issue
                Type = "Runtime"
                Number = "C429C3A5-5D47-4CD9-8F51-74A1616405DC"
            >Structure SYSTEMTIME may require marshalling attributes to be passed as an argument in this Declare statement.</Issue>
        </Section>
        <Section Name = "TrimWhitespace" >
            <Issue
                Type = "Runtime"
                Number = "6A50421D-15FE-4896-8A1B-2EC21E9037B2"
            >Couldn't resolve default property of object strToReturn.</Issue>
            <Issue
                Type = "Runtime"
                Number = "6A50421D-15FE-4896-8A1B-2EC21E9037B2"
            >Couldn't resolve default property of object strToReturn.</Issue>
        </Section>
        <Section Name = "GetStartupQuoteFile" >
            <Issue
                Type = "Runtime"
                Number = "9B7D5ADD-D8FE-4819-A36C-6DEDAF088CC7"
                PME = "Dir"
            >Dir has a new behavior.</Issue>
        </Section>
        <Section Name = "GetDefaultQuoteFile" >
            <Issue
                Type = "Runtime"
                Number = "6BA9B8D2-2A32-4B6E-8D36-44949974A5B4"
                ObjectName = "App"
                ObjectType = "App"
                PME = "EXEName"
            >App property App.EXEName has a new behavior.</Issue>
            <Issue
                Type = "Runtime"
                Number = "9B7D5ADD-D8FE-4819-A36C-6DEDAF088CC7"
                PME = "Dir"
            >Dir has a new behavior.</Issue>
        </Section>
        <Section Name = "DisplayQuoteInWindow" >
            <Issue
                Type = "Compile"
                Number = "084D22AD-ECB1-400F-B4C7-418ECEC5E36E"
            >Control Timer1 could not be resolved because it was within the generic namespace Form.</Issue>
            <Issue
                Type = "Runtime"
                Number = "6A50421D-15FE-4896-8A1B-2EC21E9037B2"
            >Couldn't resolve default property of object frm.lblQuote.ToolTipText.</Issue>
            <Issue
                Type = "Compile"
                Number = "084D22AD-ECB1-400F-B4C7-418ECEC5E36E"
            >Control lblQuote could not be resolved because it was within the generic namespace Form.</Issue>
            <Issue
                Type = "Runtime"
                Number = "6A50421D-15FE-4896-8A1B-2EC21E9037B2"
            >Couldn't resolve default property of object frm.lblAttribution.ToolTipText.</Issue>
            <Issue
                Type = "Compile"
                Number = "084D22AD-ECB1-400F-B4C7-418ECEC5E36E"
            >Control lblAttribution could not be resolved because it was within the generic namespace Form.</Issue>
            <Issue
                Type = "Compile"
                Number = "084D22AD-ECB1-400F-B4C7-418ECEC5E36E"
            >Control lblQuote could not be resolved because it was within the generic namespace Form.</Issue>
            <Issue
                Type = "Compile"
                Number = "084D22AD-ECB1-400F-B4C7-418ECEC5E36E"
            >Control lblQuote could not be resolved because it was within the generic namespace Form.</Issue>
            <Issue
                Type = "Compile"
                Number = "084D22AD-ECB1-400F-B4C7-418ECEC5E36E"
            >Control lblQuote could not be resolved because it was within the generic namespace Form.</Issue>
            <Issue
                Type = "Compile"
                Number = "084D22AD-ECB1-400F-B4C7-418ECEC5E36E"
            >Control lblQuote could not be resolved because it was within the generic namespace Form.</Issue>
            <Issue
                Type = "Compile"
                Number = "084D22AD-ECB1-400F-B4C7-418ECEC5E36E"
            >Control lblQuote could not be resolved because it was within the generic namespace Form.</Issue>
            <Issue
                Type = "Compile"
                Number = "084D22AD-ECB1-400F-B4C7-418ECEC5E36E"
            >Control lblQuote could not be resolved because it was within the generic namespace Form.</Issue>
            <Issue
                Type = "Compile"
                Number = "084D22AD-ECB1-400F-B4C7-418ECEC5E36E"
            >Control lblQuote could not be resolved because it was within the generic namespace Form.</Issue>
            <Issue
                Type = "Compile"
                Number = "084D22AD-ECB1-400F-B4C7-418ECEC5E36E"
            >Control lblQuote could not be resolved because it was within the generic namespace Form.</Issue>
            <Issue
                Type = "Compile"
                Number = "084D22AD-ECB1-400F-B4C7-418ECEC5E36E"
            >Control lblQuote could not be resolved because it was within the generic namespace Form.</Issue>
            <Issue
                Type = "Compile"
                Number = "084D22AD-ECB1-400F-B4C7-418ECEC5E36E"
            >Control lblQuote could not be resolved because it was within the generic namespace Form.</Issue>
            <Issue
                Type = "Compile"
                Number = "084D22AD-ECB1-400F-B4C7-418ECEC5E36E"
            >Control lblQuote could not be resolved because it was within the generic namespace Form.</Issue>
            <Issue
                Type = "Compile"
                Number = "084D22AD-ECB1-400F-B4C7-418ECEC5E36E"
            >Control lblQuote could not be resolved because it was within the generic namespace Form.</Issue>
            <Issue
                Type = "Compile"
                Number = "084D22AD-ECB1-400F-B4C7-418ECEC5E36E"
            >Control lblAttribution could not be resolved because it was within the generic namespace Form.</Issue>
            <Issue
                Type = "Compile"
                Number = "084D22AD-ECB1-400F-B4C7-418ECEC5E36E"
            >Control lblAttribution could not be resolved because it was within the generic namespace Form.</Issue>
            <Issue
                Type = "Compile"
                Number = "084D22AD-ECB1-400F-B4C7-418ECEC5E36E"
            >Control lblAttribution could not be resolved because it was within the generic namespace Form.</Issue>
            <Issue
                Type = "Compile"
                Number = "084D22AD-ECB1-400F-B4C7-418ECEC5E36E"
            >Control lblAttribution could not be resolved because it was within the generic namespace Form.</Issue>
            <Issue
                Type = "Compile"
                Number = "084D22AD-ECB1-400F-B4C7-418ECEC5E36E"
            >Control lblAttribution could not be resolved because it was within the generic namespace Form.</Issue>
            <Issue
                Type = "Compile"
                Number = "084D22AD-ECB1-400F-B4C7-418ECEC5E36E"
            >Control lblAttribution could not be resolved because it was within the generic namespace Form.</Issue>
            <Issue
                Type = "Compile"
                Number = "084D22AD-ECB1-400F-B4C7-418ECEC5E36E"
            >Control lblAttribution could not be resolved because it was within the generic namespace Form.</Issue>
            <Issue
                Type = "Compile"
                Number = "084D22AD-ECB1-400F-B4C7-418ECEC5E36E"
            >Control lblAttribution could not be resolved because it was within the generic namespace Form.</Issue>
            <Issue
                Type = "Compile"
                Number = "084D22AD-ECB1-400F-B4C7-418ECEC5E36E"
            >Control lblAttribution could not be resolved because it was within the generic namespace Form.</Issue>
            <Issue
                Type = "Compile"
                Number = "084D22AD-ECB1-400F-B4C7-418ECEC5E36E"
            >Control lblQuote could not be resolved because it was within the generic namespace Form.</Issue>
            <Issue
                Type = "Compile"
                Number = "084D22AD-ECB1-400F-B4C7-418ECEC5E36E"
            >Control lblAttribution could not be resolved because it was within the generic namespace Form.</Issue>
            <Issue
                Type = "Compile"
                Number = "084D22AD-ECB1-400F-B4C7-418ECEC5E36E"
            >Control lblAttribution could not be resolved because it was within the generic namespace Form.</Issue>
            <Issue
                Type = "Compile"
                Number = "084D22AD-ECB1-400F-B4C7-418ECEC5E36E"
            >Control lblQuote could not be resolved because it was within the generic namespace Form.</Issue>
            <Issue
                Type = "Compile"
                Number = "084D22AD-ECB1-400F-B4C7-418ECEC5E36E"
            >Control lblQuote could not be resolved because it was within the generic namespace Form.</Issue>
            <Issue
                Type = "Compile"
                Number = "084D22AD-ECB1-400F-B4C7-418ECEC5E36E"
            >Control lblAttribution could not be resolved because it was within the generic namespace Form.</Issue>
            <Issue
                Type = "Compile"
                Number = "084D22AD-ECB1-400F-B4C7-418ECEC5E36E"
            >Control Timer1 could not be resolved because it was within the generic namespace Form.</Issue>
        </Section>
    </File>
    <File
        OldPath = "C:\Users\BillDavis\Documents\Quotes app dot NET\modGlobals.bas"
        NewPath = "C:\Users\BillDavis\Documents\Quotes app dot NET\Quotes.NET\modGlobals.vb"
        FileType = "Module"
        Upgraded = "True"
    />
    <File
        OldPath = "C:\Users\BillDavis\Documents\Quotes app dot NET\modFind.bas"
        NewPath = "C:\Users\BillDavis\Documents\Quotes app dot NET\Quotes.NET\modFind.vb"
        FileType = "Module"
        Upgraded = "True"
    >
        <Section Name = "FindQuote" >
            <Issue
                Type = "Runtime"
                Number = "6A50421D-15FE-4896-8A1B-2EC21E9037B2"
            >Couldn't resolve default property of object FindQuote.</Issue>
            <Issue
                Type = "Runtime"
                Number = "6A50421D-15FE-4896-8A1B-2EC21E9037B2"
            >Couldn't resolve default property of object FindQuote.</Issue>
            <Issue
                Type = "Runtime"
                Number = "6A50421D-15FE-4896-8A1B-2EC21E9037B2"
            >Couldn't resolve default property of object FindQuote.</Issue>
        </Section>
    </File>
    <File
        OldPath = "C:\Users\BillDavis\Documents\Quotes app dot NET\modMouseScrollWheelSupport.bas"
        NewPath = "C:\Users\BillDavis\Documents\Quotes app dot NET\Quotes.NET\modMouseScrollWheelSupport.vb"
        FileType = "Module"
        Upgraded = "True"
    >
        <Section Name = "WindowProc" >
            <Issue
                Type = "Compile"
                Number = "084D22AD-ECB1-400F-B4C7-418ECEC5E36E"
            >Control MouseWheel could not be resolved because it was within the generic namespace Form.</Issue>
        </Section>
        <Section Name = "WheelHook" >
            <Issue
                Type = "Runtime"
                Number = "E9E157F7-EF0C-4016-87B7-7D7FBBC6EE08"
            >Add a delegate for AddressOf WindowProc</Issue>
        </Section>
    </File>
</UpgradeLog>

